\relax 
\select@language{english}
\@writefile{toc}{\select@language{english}}
\@writefile{lof}{\select@language{english}}
\@writefile{lot}{\select@language{english}}
\@writefile{toc}{\contentsline {section}{\numberline {1}Supplementary Figures}{3}}
\@writefile{lof}{\contentsline {figure}{\numberline {S1}{\ignorespaces \bf  Cytokine expression and correlation}}{3}}
\providecommand*\caption@xref[2]{\@setref\relax\@undefined{#1}}
\newlabel{fig:cytokine:heatmaps}{{S1}{3}}
\@writefile{lof}{\contentsline {figure}{\numberline {S2}{\ignorespaces \bf  Pathway correlation}}{4}}
\newlabel{fig:pathway:heatmaps}{{S2}{4}}
\@writefile{lof}{\contentsline {figure}{\numberline {S3}{\ignorespaces \bf  Multi-task affinity regression model with pathway scores vs.\ model with receptors and signaling components performance}}{5}}
\newlabel{fig:performance:receptors}{{S3}{5}}
\@writefile{lof}{\contentsline {figure}{\numberline {S4}{\ignorespaces \bf  Multi-task vs.\ regular least squares affinity regression performance}}{6}}
\newlabel{fig:performance:graphs}{{S4}{6}}
\@writefile{lof}{\contentsline {figure}{\numberline {S5}{\ignorespaces \bf  Afatinib pathway mapping and interaction scores}}{7}}
\newlabel{fig:cytokinemappings:Afatinib:a}{{S5}{7}}
\@writefile{lof}{\contentsline {figure}{\numberline {S6}{\ignorespaces \bf  EGFR head and neck cancer cell counts, pathway mapping, and interaction scores}}{8}}
\newlabel{fig:cytokinemappings:EGFR:a}{{S6}{8}}
\@writefile{lof}{\contentsline {figure}{\numberline {S7}{\ignorespaces \bf  pan-BRAF/MEK inhibitor model cytokine and pathway mappings and interaction scores}}{9}}
\newlabel{fig:cytokinemappings:BRAF:a}{{S7}{9}}
\@writefile{lof}{\contentsline {figure}{\numberline {S8}{\ignorespaces \bf  PD184352 cytokine and pathway mappings and interaction scores}}{10}}
\newlabel{fig:cytokinemappings:PD184352:a}{{S8}{10}}
\@writefile{lof}{\contentsline {figure}{\numberline {S9}{\ignorespaces \bf  SB590885 cytokine and pathway mappings and interaction scores}}{11}}
\newlabel{fig:cytokinemappings:SB590885:a}{{S9}{11}}
\@writefile{lof}{\contentsline {figure}{\numberline {S10}{\ignorespaces \bf  AZD6244 cytokine and pathway mappings and interaction scores}}{12}}
\newlabel{fig:cytokinemappings:AZD6244:a}{{S10}{12}}
\@writefile{lof}{\contentsline {figure}{\numberline {S11}{\ignorespaces \bf  Erlotinib cytokine and pathway mappings and interaction scores}}{13}}
\newlabel{fig:cytokinemappings:Erlotinib:a}{{S11}{13}}
\@writefile{lof}{\contentsline {figure}{\numberline {S12}{\ignorespaces \bf  Canertinib cytokine and pathway mappings and interaction scores}}{14}}
\newlabel{fig:cytokinemappings:Canertinib:a}{{S12}{14}}
\@writefile{lof}{\contentsline {figure}{\numberline {S13}{\ignorespaces \bf  CL-387785 cytokine and pathway mappings and interaction scores}}{15}}
\newlabel{fig:cytokinemappings:CL-387785:a}{{S13}{15}}
\@writefile{lof}{\contentsline {figure}{\numberline {S14}{\ignorespaces \bf  Gefitinib cytokine and pathway mappings and interaction scores}}{16}}
\newlabel{fig:cytokinemappings:Gefitinib:a}{{S14}{16}}
\@writefile{lof}{\contentsline {figure}{\numberline {S15}{\ignorespaces \bf  Lapatinib cytokine and pathway mappings and interaction scores}}{17}}
\newlabel{fig:cytokinemappings:Lapatinib:a}{{S15}{17}}
\@writefile{lof}{\contentsline {figure}{\numberline {S16}{\ignorespaces \bf  Dasatinib cytokine and pathway mappings and interaction scores}}{18}}
\newlabel{fig:cytokinemappings:BCRABL:a}{{S16}{18}}
\@writefile{lof}{\contentsline {figure}{\numberline {S17}{\ignorespaces \bf  Vandetanib cytokine and pathway mappings and interaction scores}}{19}}
\newlabel{fig:cytokinemappings:Vandetanib:a}{{S17}{19}}
\@writefile{lof}{\contentsline {figure}{\numberline {S18}{\ignorespaces \bf  Docetaxel cytokine and pathway mappings and interaction scores}}{20}}
\newlabel{fig:cytokinemappings:Docetaxel:a}{{S18}{20}}
